com\drifft\mine\minefield\PathwiseSurvivalAnalysis.class
com\drifft\mine\minefield\SimpleSurvivalAnalysis.class
com\drifft\mine\Launcher.class
com\drifft\mine\gui\Cell.class
com\drifft\mine\minefield\DataPoint.class
com\drifft\mine\gui\MinefieldRow.class
com\drifft\mine\gui\Menu$1.class
com\drifft\mine\gui\Menu.class
com\drifft\mine\gui\Menu$InitialPosition.class
com\drifft\mine\utilities\Statistics.class
com\drifft\mine\gui\Controller$1.class
com\drifft\mine\minefield\TimeCell.class
com\drifft\mine\gui\Menu$Uncertanty.class
com\drifft\mine\minefield\Data.class
com\drifft\mine\gui\Grid.class
com\drifft\mine\minefield\Plottable.class
com\drifft\mine\minefield\Point.class
com\drifft\mine\gui\Controller.class
com\drifft\mine\gui\RightPane.class
com\drifft\mine\minefield\SurvivalAnalysis.class
com\drifft\mine\minefield\OptimizeMinefield.class
com\drifft\mine\gui\Menu$LayerType.class
com\drifft\mine\gui\SurvivalLineChart.class
com\drifft\mine\gui\MiddlePane.class
com\drifft\mine\minefield\HazardCell.class
com\drifft\mine\gui\Menu$AnalysisType.class
com\drifft\mine\gui\SurfaceChart.class
com\drifft\mine\gui\Root.class
com\drifft\mine\gui\TransitorCell.class
com\drifft\mine\Demo.class
com\drifft\mine\minefield\PathwiseSurvivalAnalysis$1.class
com\drifft\mine\gui\TransitorCell$1.class
com\drifft\mine\minefield\Circle.class
